C:\Users\igorc\OneDrive\Documents\NetBeansProjects\TCC\src\main\java\Entity\Projeto.java
C:\Users\igorc\OneDrive\Documents\NetBeansProjects\TCC\src\main\java\View\ListPropostas.java
C:\Users\igorc\OneDrive\Documents\NetBeansProjects\TCC\src\main\java\Entity\Professor.java
C:\Users\igorc\OneDrive\Documents\NetBeansProjects\TCC\src\main\java\Controller\FileManager.java
C:\Users\igorc\OneDrive\Documents\NetBeansProjects\TCC\src\main\java\View\InsertProfessor.java
C:\Users\igorc\OneDrive\Documents\NetBeansProjects\TCC\src\main\java\Controller\Run.java
C:\Users\igorc\OneDrive\Documents\NetBeansProjects\TCC\src\main\java\Controller\Controller.java
C:\Users\igorc\OneDrive\Documents\NetBeansProjects\TCC\src\main\java\DAO\ProfessorDAO.java
C:\Users\igorc\OneDrive\Documents\NetBeansProjects\TCC\src\main\java\View\InsertAluno.java
C:\Users\igorc\OneDrive\Documents\NetBeansProjects\TCC\src\main\java\Entity\Aluno.java
C:\Users\igorc\OneDrive\Documents\NetBeansProjects\TCC\src\main\java\Interface\DaoInterface.java
C:\Users\igorc\OneDrive\Documents\NetBeansProjects\TCC\src\main\java\Controller\Rendering.java
C:\Users\igorc\OneDrive\Documents\NetBeansProjects\TCC\src\main\java\Exception\EmptyFieldException.java
C:\Users\igorc\OneDrive\Documents\NetBeansProjects\TCC\src\main\java\DAO\AlunoDAO.java
C:\Users\igorc\OneDrive\Documents\NetBeansProjects\TCC\src\main\java\Entity\BancaAvaliadora.java
C:\Users\igorc\OneDrive\Documents\NetBeansProjects\TCC\src\main\java\View\HomePage.java
C:\Users\igorc\OneDrive\Documents\NetBeansProjects\TCC\src\main\java\Enum\AreaInteresse.java
